…
> base::assign(".ptime", proc.time(), pos = "CheckExEnv")
> ### Name: interval_stats
> ### Title: Interval Summary Statistics
> ### Aliases: interval_stats
> 
> ### ** Examples
> 
> # diurnal is default
> interval_stats(AG195)
# A tibble: 730 × 9
# Groups:   interval_start [730]
   interval_start      TOD    mean_dist sd_dist acf_dist mean_ang sd_ang acf_ang
   <dttm>              <chr>      <dbl>   <dbl>    <dbl>    <dbl>  <dbl>   <dbl>
 1 2010-01-01 00:00:00 0:00-…      88.0   114.    0.515   -0.0457  1.37  -0.399 
 2 2010-01-01 12:00:00 12:00…     146.    181.    0.570   -0.290   1.19   0.0298
 3 2010-01-02 00:00:00 0:00-…     147.    177.    0.591    0.493   1.31  -0.201 
 4 2010-01-02 12:00:00 12:00…     157.    154.    0.612   -0.0942  0.923 -0.412 
 5 2010-01-03 00:00:00 0:00-…      87.2   125.    0.436    0.0130  0.902  0.0815
 6 2010-01-03 12:00:00 12:00…      43.5    64.3   0.452    0.257   1.33   0.0269
 7 2010-01-04 00:00:00 0:00-…      70.6    96.2   0.595   -0.314   1.54   0.123 
 8 2010-01-04 12:00:00 12:00…      42.5    33.8   0.143   -0.0764  1.45  -0.0202
 9 2010-01-05 00:00:00 0:00-…      95.2   111.    0.473   -0.0782  1.37  -0.102 
10 2010-01-05 12:00:00 12:00…      63.3    42.6   0.0695   0.0619  1.02   0.0658
# ℹ 720 more rows
# ℹ 1 more variable: ccf <dbl>
> interval_stats(AG195, type = "lunar")
# A tibble: 25 × 9
# Groups:   interval_start [25]
   interval_start phase      mean_dist sd_dist acf_dist mean_ang sd_ang  acf_ang
   <fct>          <chr>          <dbl>   <dbl>    <dbl>    <dbl>  <dbl>    <dbl>
 1 2010-01-01     Full-Wani…      99.8    126.    0.571 -5.92e-4   1.31 -0.0351 
 2 2010-01-12     New-Waxing     118.     122.    0.517  1.52e-2   1.22 -0.0611 
 3 2010-01-26     Full-Wani…     181.     239.    0.686 -3.61e-2   1.32  0.0199 
 4 2010-02-10     New-Waxing     244.     284.    0.710  6.39e-2   1.30  0.0235 
 5 2010-02-25     Full-Wani…     210.     254.    0.674  6.49e-2   1.37  0.0434 
 6 2010-03-12     New-Waxing     192.     261.    0.700  1.24e-2   1.37 -0.0126 
 7 2010-03-27     Full-Wani…     105.     152.    0.709  5.35e-2   1.28 -0.00154
 8 2010-04-10     New-Waxing     184.     246.    0.751 -2.38e-2   1.21 -0.00632
 9 2010-04-25     Full-Wani…     119.     161.    0.539  4.81e-2   1.23 -0.119  
10 2010-05-10     New-Waxing     115.     169.    0.612  4.37e-2   1.19 -0.0617 
# ℹ 15 more rows
# ℹ 1 more variable: ccf <dbl>
…
